{"help": "https://www.juntadeandalucia.es/datosabiertos/portal/api/3/action/help_show?name=datastore_search", "success": true, "result": {"include_total": true, "limit": 100, "q": "gimnasio sevilla", "records_format": "objects", "resource_id": "8e8e1b8f-6626-4a0b-93f8-9c99c4340797", "total_estimation_threshold": null, "records": [{"_id":5697,"Código IDA":2274,"Nombre de instalación":"GIMNASIO SEVILLA GYM","Provincia":"Sevilla","Municipio":"Sevilla","Nombre vía":"AMOR DE DIOS","Código postal":41003,"Espacio deportivo (texto libre)":"GIMNASIO","rank":0.29972136},{"_id":38460,"Código IDA":2274,"Nombre de instalación":"GIMNASIO SEVILLA GYM","Provincia":"Sevilla","Municipio":"Sevilla","Nombre vía":"AMOR DE DIOS","Código postal":41003,"Espacio deportivo (texto libre)":"GIMNASIO","rank":0.29972136},{"_id":38320,"Código IDA":2213,"Nombre de instalación":"GIMNASIO SADUS","Provincia":"Sevilla","Municipio":"Sevilla","Nombre vía":"AVDA. DINAMARCA","Código postal":41012,"Espacio deportivo (texto libre)":"GIMNASIO","rank":0.24875808},{"_id":5557,"Código IDA":2213,"Nombre de instalación":"GIMNASIO SADUS","Provincia":"Sevilla","Municipio":"Sevilla","Nombre vía":"AVDA. DINAMARCA","Código postal":41012,"Espacio deportivo (texto libre)":"GIMNASIO","rank":0.24875808},{"_id":38401,"Código IDA":2249,"Nombre de instalación":"GIMNASIO FUERZA Y SALUD","Provincia":"Sevilla","Municipio":"Sevilla","Nombre vía":"PERAL","Código postal":41003,"Espacio deportivo (texto libre)":"GIMNASIO","rank":0.2473914},{"_id":5638,"Código IDA":2249,"Nombre de instalación":"GIMNASIO FUERZA Y SALUD","Provincia":"Sevilla","Municipio":"Sevilla","Nombre vía":"PERAL","Código postal":41003,"Espacio deportivo (texto libre)":"GIMNASIO","rank":0.2473914},{"_id":5647,"Código IDA":2254,"Nombre de instalación":"CLUB NATACION SEVILLA","Provincia":"Sevilla","Municipio":"Sevilla","Nombre vía":"TRASTAMARA","Código postal":41001,"Espacio deportivo (texto libre)":"GIMNASIO MUSCULACIÓN","rank":0.2051165},{"_id":38410,"Código IDA":2254,"Nombre de instalación":"CLUB NATACION SEVILLA","Provincia":"Sevilla","Municipio":"Sevilla","Nombre vía":"TRASTAMARA","Código postal":41001,"Espacio deportivo (texto libre)":"GIMNASIO MUSCULACIÓN","rank":0.2051165},{"_id":38025,"Código IDA":2107,"Nombre de instalación":"HOTEL AC CIUDAD DE SEVILLA","Provincia":"Sevilla","Municipio":"Sevilla","Nombre vía":"MANUEL SIUROT","Código postal":41013,"Espacio deportivo (texto libre)":"GIMNASIO","rank":0.19880265},{"_id":5262,"Código IDA":2107,"Nombre de instalación":"HOTEL AC CIUDAD DE SEVILLA","Provincia":"Sevilla","Municipio":"Sevilla","Nombre vía":"MANUEL SIUROT","Código postal":41013,"Espacio deportivo (texto libre)":"GIMNASIO","rank":0.19880265},{"_id":5456,"Código IDA":2184,"Nombre de instalación":"REAL CLUB PINEDA DE SEVILLA","Provincia":"Sevilla","Municipio":"Sevilla","Nombre vía":"AVDA. JEREZ","Código postal":41012,"Espacio deportivo (texto libre)":"GIMNASIO MUSCULACION","rank":0.19880265},{"_id":38219,"Código IDA":2184,"Nombre de instalación":"REAL CLUB PINEDA DE SEVILLA","Provincia":"Sevilla","Municipio":"Sevilla","Nombre vía":"AVDA. JEREZ","Código postal":41012,"Espacio deportivo (texto libre)":"GIMNASIO MUSCULACION","rank":0.19880265},{"_id":5161,"Código IDA":2064,"Nombre de instalación":"GIMNASIO VILLALBA","Provincia":"Sevilla","Municipio":"Sevilla","Nombre vía":"CL. LUIS MONTOTO","Código postal":41000,"Espacio deportivo (texto libre)":"11516","rank":0.1570212},{"_id":5558,"Código IDA":2213,"Nombre de instalación":"GIMNASIO SADUS","Provincia":"Sevilla","Municipio":"Sevilla","Nombre vía":"AVDA. DINAMARCA","Código postal":41012,"Espacio deportivo (texto libre)":"SALA 1","rank":0.1570212},{"_id":38390,"Código IDA":2240,"Nombre de instalación":"GIMNASIO ADONIS","Provincia":"Sevilla","Municipio":"Sevilla","Nombre vía":"ALONSO EL SABIO","Código postal":41004,"Espacio deportivo (texto libre)":"SALA AEROBIC","rank":0.1570212},{"_id":3231,"Código IDA":1294,"Nombre de instalación":"GIMNASIO VILLALBA","Provincia":"Sevilla","Municipio":"Sevilla","Nombre vía":"AVDA.EMILIO LEMOS","Código postal":41020,"Espacio deportivo (texto libre)":"SALA MUSCULACION 2","rank":0.1570212},{"_id":38419,"Código IDA":2258,"Nombre de instalación":"GIMNASIO JUPITER","Provincia":"Sevilla","Municipio":"Sevilla","Nombre vía":"JUPITER","Código postal":41003,"Espacio deportivo (texto libre)":"SALA ESPECIALIZADA","rank":0.1570212},{"_id":3161,"Código IDA":1285,"Nombre de instalación":"GIMNASIO ATLAS","Provincia":"Sevilla","Municipio":"Sevilla","Nombre vía":"SALESIANOS","Código postal":41008,"Espacio deportivo (texto libre)":"PABELLÓN","rank":0.1570212},{"_id":38322,"Código IDA":2213,"Nombre de instalación":"GIMNASIO SADUS","Provincia":"Sevilla","Municipio":"Sevilla","Nombre vía":"AVDA. DINAMARCA","Código postal":41012,"Espacio deportivo (texto libre)":"SALA 2","rank":0.1570212},{"_id":38392,"Código IDA":2241,"Nombre de instalación":"GIMNASIO NADIA","Provincia":"Sevilla","Municipio":"Sevilla","Nombre vía":"SAN VICENTE","Código postal":41003,"Espacio deportivo (texto libre)":"SALA AEROBIC","rank":0.1570212},{"_id":37925,"Código IDA":2067,"Nombre de instalación":"GIMNASIO FORMAS","Provincia":"Sevilla","Municipio":"Sevilla","Nombre vía":"VIRGEN DE SETEFILLAS","Código postal":41011,"Espacio deportivo (texto libre)":"SALA AEROBIC","rank":0.1570212},{"_id":38393,"Código IDA":2241,"Nombre de instalación":"GIMNASIO NADIA","Provincia":"Sevilla","Municipio":"Sevilla","Nombre vía":"SAN VICENTE","Código postal":41003,"Espacio deportivo (texto libre)":"SALA MUSCULACIÓN","rank":0.1570212},{"_id":5164,"Código IDA":2068,"Nombre de instalación":"GIMNASIO KIM","Provincia":"Sevilla","Municipio":"Sevilla","Nombre vía":"VIRGEN DE SETEFILLAS","Código postal":41011,"Espacio deportivo (texto libre)":"TATAMI","rank":0.1570212},{"_id":4393,"Código IDA":1688,"Nombre de instalación":"GIMNASIO PRAXIS","Provincia":"Sevilla","Municipio":"Sevilla","Nombre vía":"CIUDAD DE MANISES","Código postal":41019,"Espacio deportivo (texto libre)":"SALA DE FITNESS","rank":0.1570212},{"_id":38426,"Código IDA":2262,"Nombre de instalación":"GIMNASIO LIÑAN","Provincia":"Sevilla","Municipio":"Sevilla","Nombre vía":"LOPE DE VEGA","Código postal":41003,"Espacio deportivo (texto libre)":"SALA DE MUSCULACIÓN","rank":0.1570212},{"_id":5559,"Código IDA":2213,"Nombre de instalación":"GIMNASIO SADUS","Provincia":"Sevilla","Municipio":"Sevilla","Nombre vía":"AVDA. DINAMARCA","Código postal":41012,"Espacio deportivo (texto libre)":"SALA 2","rank":0.1570212},{"_id":3230,"Código IDA":1294,"Nombre de instalación":"GIMNASIO VILLALBA","Provincia":"Sevilla","Municipio":"Sevilla","Nombre vía":"AVDA.EMILIO LEMOS","Código postal":41020,"Espacio deportivo (texto libre)":"SALA MUSCULACION","rank":0.1570212},{"_id":3165,"Código IDA":1285,"Nombre de instalación":"GIMNASIO ATLAS","Provincia":"Sevilla","Municipio":"Sevilla","Nombre vía":"SALESIANOS","Código postal":41008,"Espacio deportivo (texto libre)":"PISTA DE TENIS 2","rank":0.1570212},{"_id":3167,"Código IDA":1285,"Nombre de instalación":"GIMNASIO ATLAS","Provincia":"Sevilla","Municipio":"Sevilla","Nombre vía":"SALESIANOS","Código postal":41008,"Espacio deportivo (texto libre)":"SALA DE MUSCULACIÓN","rank":0.1570212},{"_id":34629,"Código IDA":769,"Nombre de instalación":"GIMNASIO LAOOCONTE","Provincia":"Sevilla","Municipio":"Sevilla","Nombre vía":"CHAROLISTAS","Código postal":41015,"Espacio deportivo (texto libre)":"SALA MUSCULACION","rank":0.1570212},{"_id":37156,"Código IDA":1688,"Nombre de instalación":"GIMNASIO PRAXIS","Provincia":"Sevilla","Municipio":"Sevilla","Nombre vía":"CIUDAD DE MANISES","Código postal":41019,"Espacio deportivo (texto libre)":"SALA DE FITNESS","rank":0.1570212},{"_id":5664,"Código IDA":2262,"Nombre de instalación":"GIMNASIO LIÑAN","Provincia":"Sevilla","Municipio":"Sevilla","Nombre vía":"LOPE DE VEGA","Código postal":41003,"Espacio deportivo (texto libre)":"TATAMI","rank":0.1570212},{"_id":36794,"Código IDA":1590,"Nombre de instalación":"GIMNASIO ATLANTIS","Provincia":"Sevilla","Municipio":"Sevilla","Nombre vía":"MAESTRO FALLA","Código postal":41006,"Espacio deportivo (texto libre)":"SALA POLIVALENTE","rank":0.1570212},{"_id":37157,"Código IDA":1688,"Nombre de instalación":"GIMNASIO PRAXIS","Provincia":"Sevilla","Municipio":"Sevilla","Nombre vía":"CIUDAD DE MANISES","Código postal":41019,"Espacio deportivo (texto libre)":"SALA DE MUSCULACIÓN","rank":0.1570212},{"_id":35995,"Código IDA":1294,"Nombre de instalación":"GIMNASIO VILLALBA","Provincia":"Sevilla","Municipio":"Sevilla","Nombre vía":"AVDA.EMILIO LEMOS","Código postal":41020,"Espacio deportivo (texto libre)":"SALA POLIVALENTE","rank":0.1570212},{"_id":35994,"Código IDA":1294,"Nombre de instalación":"GIMNASIO VILLALBA","Provincia":"Sevilla","Municipio":"Sevilla","Nombre vía":"AVDA.EMILIO LEMOS","Código postal":41020,"Espacio deportivo (texto libre)":"SALA MUSCULACION 2","rank":0.1570212},{"_id":36129,"Código IDA":1366,"Nombre de instalación":"GIMNASIO SABAS","Provincia":"Sevilla","Municipio":"Sevilla","Nombre vía":"FERNAN SANCHEZ DE TOVAR","Código postal":41009,"Espacio deportivo (texto libre)":"SALA MUSCULACION","rank":0.1570212},{"_id":35992,"Código IDA":1294,"Nombre de instalación":"GIMNASIO VILLALBA","Provincia":"Sevilla","Municipio":"Sevilla","Nombre vía":"AVDA.EMILIO LEMOS","Código postal":41020,"Espacio deportivo (texto libre)":"SALA DE SPINING","rank":0.1570212},{"_id":3966,"Código IDA":1564,"Nombre de instalación":"GIMNASIO UNIVERSAL","Provincia":"Sevilla","Municipio":"Sevilla","Nombre vía":"ALFONSO LASSO DE LA VEGA, NAVE 11-B","Código postal":41013,"Espacio deportivo (texto libre)":"SALA POLIVALENTE","rank":0.1570212},{"_id":36793,"Código IDA":1590,"Nombre de instalación":"GIMNASIO ATLANTIS","Provincia":"Sevilla","Municipio":"Sevilla","Nombre vía":"MAESTRO FALLA","Código postal":41006,"Espacio deportivo (texto libre)":"SALA MUSCULACION","rank":0.1570212},{"_id":5663,"Código IDA":2262,"Nombre de instalación":"GIMNASIO LIÑAN","Provincia":"Sevilla","Municipio":"Sevilla","Nombre vía":"LOPE DE VEGA","Código postal":41003,"Espacio deportivo (texto libre)":"SALA DE MUSCULACIÓN","rank":0.1570212},{"_id":37155,"Código IDA":1688,"Nombre de instalación":"GIMNASIO PRAXIS","Provincia":"Sevilla","Municipio":"Sevilla","Nombre vía":"CIUDAD DE MANISES","Código postal":41019,"Espacio deportivo (texto libre)":"SALA DE AEROBIC","rank":0.1570212},{"_id":37924,"Código IDA":2064,"Nombre de instalación":"GIMNASIO VILLALBA","Provincia":"Sevilla","Municipio":"Sevilla","Nombre vía":"CL. LUIS MONTOTO","Código postal":41000,"Espacio deportivo (texto libre)":"11516","rank":0.1570212},{"_id":37926,"Código IDA":2067,"Nombre de instalación":"GIMNASIO FORMAS","Provincia":"Sevilla","Municipio":"Sevilla","Nombre vía":"VIRGEN DE SETEFILLAS","Código postal":41011,"Espacio deportivo (texto libre)":"SALA MUSCULACION","rank":0.1570212},{"_id":38321,"Código IDA":2213,"Nombre de instalación":"GIMNASIO SADUS","Provincia":"Sevilla","Municipio":"Sevilla","Nombre vía":"AVDA. DINAMARCA","Código postal":41012,"Espacio deportivo (texto libre)":"SALA 1","rank":0.1570212},{"_id":38391,"Código IDA":2240,"Nombre de instalación":"GIMNASIO ADONIS","Provincia":"Sevilla","Municipio":"Sevilla","Nombre vía":"ALONSO EL SABIO","Código postal":41004,"Espacio deportivo (texto libre)":"SALA MUSCULACIÓN","rank":0.1570212},{"_id":35930,"Código IDA":1285,"Nombre de instalación":"GIMNASIO ATLAS","Provincia":"Sevilla","Municipio":"Sevilla","Nombre vía":"SALESIANOS","Código postal":41008,"Espacio deportivo (texto libre)":"SALA DE MUSCULACIÓN","rank":0.1570212},{"_id":38404,"Código IDA":2250,"Nombre de instalación":"CLUB DEPORTIVO GIMNASIO 21","Provincia":"Sevilla","Municipio":"Sevilla","Nombre vía":"JOSÉ MARÍA MARTÍNEZ SÁNCHEZ ARJONA","Código postal":41010,"Espacio deportivo (texto libre)":"TATAMI","rank":0.1570212},{"_id":4392,"Código IDA":1688,"Nombre de instalación":"GIMNASIO PRAXIS","Provincia":"Sevilla","Municipio":"Sevilla","Nombre vía":"CIUDAD DE MANISES","Código postal":41019,"Espacio deportivo (texto libre)":"SALA DE AEROBIC","rank":0.1570212},{"_id":4394,"Código IDA":1688,"Nombre de instalación":"GIMNASIO PRAXIS","Provincia":"Sevilla","Municipio":"Sevilla","Nombre vía":"CIUDAD DE MANISES","Código postal":41019,"Espacio deportivo (texto libre)":"SALA DE MUSCULACIÓN","rank":0.1570212},{"_id":38420,"Código IDA":2258,"Nombre de instalación":"GIMNASIO JUPITER","Provincia":"Sevilla","Municipio":"Sevilla","Nombre vía":"JUPITER","Código postal":41003,"Espacio deportivo (texto libre)":"SALA MUSCULACION","rank":0.1570212},{"_id":38427,"Código IDA":2262,"Nombre de instalación":"GIMNASIO LIÑAN","Provincia":"Sevilla","Municipio":"Sevilla","Nombre vía":"LOPE DE VEGA","Código postal":41003,"Espacio deportivo (texto libre)":"TATAMI","rank":0.1570212},{"_id":35993,"Código IDA":1294,"Nombre de instalación":"GIMNASIO VILLALBA","Provincia":"Sevilla","Municipio":"Sevilla","Nombre vía":"AVDA.EMILIO LEMOS","Código postal":41020,"Espacio deportivo (texto libre)":"SALA MUSCULACION","rank":0.1570212},{"_id":36130,"Código IDA":1366,"Nombre de instalación":"GIMNASIO SABAS","Provincia":"Sevilla","Municipio":"Sevilla","Nombre vía":"FERNAN SANCHEZ DE TOVAR","Código postal":41009,"Espacio deportivo (texto libre)":"SALA POLIVALENTE","rank":0.1570212},{"_id":3166,"Código IDA":1285,"Nombre de instalación":"GIMNASIO ATLAS","Provincia":"Sevilla","Municipio":"Sevilla","Nombre vía":"SALESIANOS","Código postal":41008,"Espacio deportivo (texto libre)":"PISTA DE TENIS 3","rank":0.1570212},{"_id":3162,"Código IDA":1285,"Nombre de instalación":"GIMNASIO ATLAS","Provincia":"Sevilla","Municipio":"Sevilla","Nombre vía":"SALESIANOS","Código postal":41008,"Espacio deportivo (texto libre)":"PISTA DE FRONTENIS","rank":0.1570212},{"_id":3163,"Código IDA":1285,"Nombre de instalación":"GIMNASIO ATLAS","Provincia":"Sevilla","Municipio":"Sevilla","Nombre vía":"SALESIANOS","Código postal":41008,"Espacio deportivo (texto libre)":"PISTA DE PADEL","rank":0.1570212},{"_id":3164,"Código IDA":1285,"Nombre de instalación":"GIMNASIO ATLAS","Provincia":"Sevilla","Municipio":"Sevilla","Nombre vía":"SALESIANOS","Código postal":41008,"Espacio deportivo (texto libre)":"PISTA DE TENIS 1","rank":0.1570212},{"_id":35926,"Código IDA":1285,"Nombre de instalación":"GIMNASIO ATLAS","Provincia":"Sevilla","Municipio":"Sevilla","Nombre vía":"SALESIANOS","Código postal":41008,"Espacio deportivo (texto libre)":"PISTA DE PADEL","rank":0.1570212},{"_id":3229,"Código IDA":1294,"Nombre de instalación":"GIMNASIO VILLALBA","Provincia":"Sevilla","Municipio":"Sevilla","Nombre vía":"AVDA.EMILIO LEMOS","Código postal":41020,"Espacio deportivo (texto libre)":"SALA DE SPINING","rank":0.1570212},{"_id":34628,"Código IDA":769,"Nombre de instalación":"GIMNASIO LAOOCONTE","Provincia":"Sevilla","Municipio":"Sevilla","Nombre vía":"CHAROLISTAS","Código postal":41015,"Espacio deportivo (texto libre)":"SALA AEROBIC","rank":0.1570212},{"_id":5162,"Código IDA":2067,"Nombre de instalación":"GIMNASIO FORMAS","Provincia":"Sevilla","Municipio":"Sevilla","Nombre vía":"VIRGEN DE SETEFILLAS","Código postal":41011,"Espacio deportivo (texto libre)":"SALA AEROBIC","rank":0.1570212},{"_id":35925,"Código IDA":1285,"Nombre de instalación":"GIMNASIO ATLAS","Provincia":"Sevilla","Municipio":"Sevilla","Nombre vía":"SALESIANOS","Código postal":41008,"Espacio deportivo (texto libre)":"PISTA DE FRONTENIS","rank":0.1570212},{"_id":35927,"Código IDA":1285,"Nombre de instalación":"GIMNASIO ATLAS","Provincia":"Sevilla","Municipio":"Sevilla","Nombre vía":"SALESIANOS","Código postal":41008,"Espacio deportivo (texto libre)":"PISTA DE TENIS 1","rank":0.1570212},{"_id":36728,"Código IDA":1564,"Nombre de instalación":"GIMNASIO UNIVERSAL","Provincia":"Sevilla","Municipio":"Sevilla","Nombre vía":"ALFONSO LASSO DE LA VEGA, NAVE 11-B","Código postal":41013,"Espacio deportivo (texto libre)":"SALA MUSCULACION","rank":0.1570212},{"_id":3232,"Código IDA":1294,"Nombre de instalación":"GIMNASIO VILLALBA","Provincia":"Sevilla","Municipio":"Sevilla","Nombre vía":"AVDA.EMILIO LEMOS","Código postal":41020,"Espacio deportivo (texto libre)":"SALA POLIVALENTE","rank":0.1570212},{"_id":5627,"Código IDA":2240,"Nombre de instalación":"GIMNASIO ADONIS","Provincia":"Sevilla","Municipio":"Sevilla","Nombre vía":"ALONSO EL SABIO","Código postal":41004,"Espacio deportivo (texto libre)":"SALA AEROBIC","rank":0.1570212},{"_id":5630,"Código IDA":2241,"Nombre de instalación":"GIMNASIO NADIA","Provincia":"Sevilla","Municipio":"Sevilla","Nombre vía":"SAN VICENTE","Código postal":41003,"Espacio deportivo (texto libre)":"SALA MUSCULACIÓN","rank":0.1570212},{"_id":1865,"Código IDA":769,"Nombre de instalación":"GIMNASIO LAOOCONTE","Provincia":"Sevilla","Municipio":"Sevilla","Nombre vía":"CHAROLISTAS","Código postal":41015,"Espacio deportivo (texto libre)":"SALA AEROBIC","rank":0.1570212},{"_id":5629,"Código IDA":2241,"Nombre de instalación":"GIMNASIO NADIA","Provincia":"Sevilla","Municipio":"Sevilla","Nombre vía":"SAN VICENTE","Código postal":41003,"Espacio deportivo (texto libre)":"SALA AEROBIC","rank":0.1570212},{"_id":5641,"Código IDA":2250,"Nombre de instalación":"CLUB DEPORTIVO GIMNASIO 21","Provincia":"Sevilla","Municipio":"Sevilla","Nombre vía":"JOSÉ MARÍA MARTÍNEZ SÁNCHEZ ARJONA","Código postal":41010,"Espacio deportivo (texto libre)":"TATAMI","rank":0.1570212},{"_id":35929,"Código IDA":1285,"Nombre de instalación":"GIMNASIO ATLAS","Provincia":"Sevilla","Municipio":"Sevilla","Nombre vía":"SALESIANOS","Código postal":41008,"Espacio deportivo (texto libre)":"PISTA DE TENIS 3","rank":0.1570212},{"_id":3366,"Código IDA":1366,"Nombre de instalación":"GIMNASIO SABAS","Provincia":"Sevilla","Municipio":"Sevilla","Nombre vía":"FERNAN SANCHEZ DE TOVAR","Código postal":41009,"Espacio deportivo (texto libre)":"SALA MUSCULACION","rank":0.1570212},{"_id":35924,"Código IDA":1285,"Nombre de instalación":"GIMNASIO ATLAS","Provincia":"Sevilla","Municipio":"Sevilla","Nombre vía":"SALESIANOS","Código postal":41008,"Espacio deportivo (texto libre)":"PABELLÓN","rank":0.1570212},{"_id":3367,"Código IDA":1366,"Nombre de instalación":"GIMNASIO SABAS","Provincia":"Sevilla","Municipio":"Sevilla","Nombre vía":"FERNAN SANCHEZ DE TOVAR","Código postal":41009,"Espacio deportivo (texto libre)":"SALA POLIVALENTE","rank":0.1570212},{"_id":5640,"Código IDA":2250,"Nombre de instalación":"CLUB DEPORTIVO GIMNASIO 21","Provincia":"Sevilla","Municipio":"Sevilla","Nombre vía":"JOSÉ MARÍA MARTÍNEZ SÁNCHEZ ARJONA","Código postal":41010,"Espacio deportivo (texto libre)":"SALA DE MUSCULACIÓN","rank":0.1570212},{"_id":5163,"Código IDA":2067,"Nombre de instalación":"GIMNASIO FORMAS","Provincia":"Sevilla","Municipio":"Sevilla","Nombre vía":"VIRGEN DE SETEFILLAS","Código postal":41011,"Espacio deportivo (texto libre)":"SALA MUSCULACION","rank":0.1570212},{"_id":5628,"Código IDA":2240,"Nombre de instalación":"GIMNASIO ADONIS","Provincia":"Sevilla","Municipio":"Sevilla","Nombre vía":"ALONSO EL SABIO","Código postal":41004,"Espacio deportivo (texto libre)":"SALA MUSCULACIÓN","rank":0.1570212},{"_id":3965,"Código IDA":1564,"Nombre de instalación":"GIMNASIO UNIVERSAL","Provincia":"Sevilla","Municipio":"Sevilla","Nombre vía":"ALFONSO LASSO DE LA VEGA, NAVE 11-B","Código postal":41013,"Espacio deportivo (texto libre)":"SALA MUSCULACION","rank":0.1570212},{"_id":35928,"Código IDA":1285,"Nombre de instalación":"GIMNASIO ATLAS","Provincia":"Sevilla","Municipio":"Sevilla","Nombre vía":"SALESIANOS","Código postal":41008,"Espacio deportivo (texto libre)":"PISTA DE TENIS 2","rank":0.1570212},{"_id":36729,"Código IDA":1564,"Nombre de instalación":"GIMNASIO UNIVERSAL","Provincia":"Sevilla","Municipio":"Sevilla","Nombre vía":"ALFONSO LASSO DE LA VEGA, NAVE 11-B","Código postal":41013,"Espacio deportivo (texto libre)":"SALA POLIVALENTE","rank":0.1570212},{"_id":1866,"Código IDA":769,"Nombre de instalación":"GIMNASIO LAOOCONTE","Provincia":"Sevilla","Municipio":"Sevilla","Nombre vía":"CHAROLISTAS","Código postal":41015,"Espacio deportivo (texto libre)":"SALA MUSCULACION","rank":0.1570212},{"_id":5656,"Código IDA":2258,"Nombre de instalación":"GIMNASIO JUPITER","Provincia":"Sevilla","Municipio":"Sevilla","Nombre vía":"JUPITER","Código postal":41003,"Espacio deportivo (texto libre)":"SALA ESPECIALIZADA","rank":0.1570212},{"_id":4030,"Código IDA":1590,"Nombre de instalación":"GIMNASIO ATLANTIS","Provincia":"Sevilla","Municipio":"Sevilla","Nombre vía":"MAESTRO FALLA","Código postal":41006,"Espacio deportivo (texto libre)":"SALA MUSCULACION","rank":0.1570212},{"_id":4031,"Código IDA":1590,"Nombre de instalación":"GIMNASIO ATLANTIS","Provincia":"Sevilla","Municipio":"Sevilla","Nombre vía":"MAESTRO FALLA","Código postal":41006,"Espacio deportivo (texto libre)":"SALA POLIVALENTE","rank":0.1570212},{"_id":5657,"Código IDA":2258,"Nombre de instalación":"GIMNASIO JUPITER","Provincia":"Sevilla","Municipio":"Sevilla","Nombre vía":"JUPITER","Código postal":41003,"Espacio deportivo (texto libre)":"SALA MUSCULACION","rank":0.1570212},{"_id":38403,"Código IDA":2250,"Nombre de instalación":"CLUB DEPORTIVO GIMNASIO 21","Provincia":"Sevilla","Municipio":"Sevilla","Nombre vía":"JOSÉ MARÍA MARTÍNEZ SÁNCHEZ ARJONA","Código postal":41010,"Espacio deportivo (texto libre)":"SALA DE MUSCULACIÓN","rank":0.1570212},{"_id":37927,"Código IDA":2068,"Nombre de instalación":"GIMNASIO KIM","Provincia":"Sevilla","Municipio":"Sevilla","Nombre vía":"VIRGEN DE SETEFILLAS","Código postal":41011,"Espacio deportivo (texto libre)":"TATAMI","rank":0.1570212},{"_id":34420,"Código IDA":671,"Nombre de instalación":"I.E.S. LOPEZ ARENAS","Provincia":"Sevilla","Municipio":"Marchena","Nombre vía":"SEVILLA","Código postal":41620,"Espacio deportivo (texto libre)":"GIMNASIO","rank":0.1556638},{"_id":2452,"Código IDA":1025,"Nombre de instalación":"POLIDEPORTIVO MUNICIPAL","Provincia":"Sevilla","Municipio":"Aznalcázar","Nombre vía":"SEVILLA","Código postal":41849,"Espacio deportivo (texto libre)":"GIMNASIO","rank":0.1556638},{"_id":1657,"Código IDA":671,"Nombre de instalación":"I.E.S. LOPEZ ARENAS","Provincia":"Sevilla","Municipio":"Marchena","Nombre vía":"SEVILLA","Código postal":41620,"Espacio deportivo (texto libre)":"GIMNASIO","rank":0.1556638},{"_id":35215,"Código IDA":1025,"Nombre de instalación":"POLIDEPORTIVO MUNICIPAL","Provincia":"Sevilla","Municipio":"Aznalcázar","Nombre vía":"SEVILLA","Código postal":41849,"Espacio deportivo (texto libre)":"GIMNASIO","rank":0.1556638},{"_id":5525,"Código IDA":2202,"Nombre de instalación":"I.E.S. PUNTA DEL VERDE","Provincia":"Sevilla","Municipio":"Sevilla","Nombre vía":"BARRIONUEVO","Código postal":41012,"Espacio deportivo (texto libre)":"GIMNASIO","rank":0.15492631},{"_id":34705,"Código IDA":821,"Nombre de instalación":"C.E.I.P. FEDERICO GARCIA LORCA","Provincia":"Sevilla","Municipio":"Sevilla","Nombre vía":"CORVINA","Código postal":41015,"Espacio deportivo (texto libre)":"GIMNASIO","rank":0.15492631},{"_id":4417,"Código IDA":1697,"Nombre de instalación":"GIMNASIO MAS SPORT","Provincia":"Sevilla","Municipio":"Sevilla","Nombre vía":"ALGOR","Código postal":41020,"Espacio deportivo (texto libre)":"SALA JUEGOS POPULARES","rank":0.15492631},{"_id":4418,"Código IDA":1697,"Nombre de instalación":"GIMNASIO MAS SPORT","Provincia":"Sevilla","Municipio":"Sevilla","Nombre vía":"ALGOR","Código postal":41020,"Espacio deportivo (texto libre)":"SALA SPINNING","rank":0.15492631},{"_id":5516,"Código IDA":2199,"Nombre de instalación":"C.D.P. COMPAÑIA DE MARIA","Provincia":"Sevilla","Municipio":"Sevilla","Nombre vía":"COLOMBIA","Código postal":41013,"Espacio deportivo (texto libre)":"GIMNASIO 1","rank":0.15492631},{"_id":4416,"Código IDA":1697,"Nombre de instalación":"GIMNASIO MAS SPORT","Provincia":"Sevilla","Municipio":"Sevilla","Nombre vía":"ALGOR","Código postal":41020,"Espacio deportivo (texto libre)":"SALA DE MUSCULACIÓN","rank":0.15492631},{"_id":5517,"Código IDA":2199,"Nombre de instalación":"C.D.P. COMPAÑIA DE MARIA","Provincia":"Sevilla","Municipio":"Sevilla","Nombre vía":"COLOMBIA","Código postal":41013,"Espacio deportivo (texto libre)":"GIMNASIO 2","rank":0.15492631},{"_id":31925,"Código IDA":22635,"Nombre de instalación":"GIMNASIO URBANIZACION LA SOLEDAD","Provincia":"Sevilla","Municipio":"Pilas","Nombre vía":"MAGALLANES","Código postal":null,"Espacio deportivo (texto libre)":"GIMNASIO","rank":0.15492631}], "fields": [{"id": "_id", "type": "int"}, {"id": "C\u00f3digo IDA", "type": "numeric"}, {"id": "Nombre de instalaci\u00f3n", "type": "text"}, {"id": "Provincia", "type": "text"}, {"id": "Municipio", "type": "text"}, {"id": "Nombre v\u00eda", "type": "text"}, {"id": "C\u00f3digo postal", "type": "numeric"}, {"id": "Espacio deportivo (texto libre)", "type": "text"}, {"id": "rank", "type": "float"}], "_links": {"start": "//api/3/action/datastore_search?limit=970&q=gimnasio+sevilla&resource_id=8e8e1b8f-6626-4a0b-93f8-9c99c4340797", "next": "//api/3/action/datastore_search?limit=100&q=gimnasio+sevilla&resource_id=8e8e1b8f-6626-4a0b-93f8-9c99c4340797&offset=100"}, "total": 970, "total_was_estimated": false}}